{
    "name": "PlayerInputActions",
    "maps": [
        {
            "name": "PlayerControls",
            "id": "748fb3b1-b6b8-404b-89c6-23172100554d",
            "actions": [
                {
                    "name": "Move",
                    "type": "PassThrough",
                    "id": "74077f38-effa-49f6-ab6b-484a95758612",
                    "expectedControlType": "Axis",
                    "processors": "",
                    "interactions": ""
                },
                {
                    "name": "StandardAttack",
                    "type": "Button",
                    "id": "e56f7370-bf07-4d5f-81ab-04a8463e5144",
                    "expectedControlType": "Button",
                    "processors": "",
                    "interactions": "Press"
                },
                {
                    "name": "Jump",
                    "type": "Button",
                    "id": "fe63e329-9a7a-4a09-8393-4476ab17a79b",
                    "expectedControlType": "Button",
                    "processors": "",
                    "interactions": "Press"
                },
                {
                    "name": "Run",
                    "type": "Button",
                    "id": "50bb8282-981e-47fe-85ce-030591dfcd71",
                    "expectedControlType": "Button",
                    "processors": "",
                    "interactions": "Press(behavior=2)"
                },
                {
                    "name": "Roll",
                    "type": "Button",
                    "id": "8331c556-3677-461f-ba34-4db3b0035fc5",
                    "expectedControlType": "Button",
                    "processors": "",
                    "interactions": "Press"
                },
                {
                    "name": "Block",
                    "type": "Button",
                    "id": "551a65e3-a196-4eaa-97be-4c5605c51e5f",
                    "expectedControlType": "Button",
                    "processors": "",
                    "interactions": "Press(behavior=2)"
                },
                {
                    "name": "OpenInventory",
                    "type": "Button",
                    "id": "0bc108ac-8fe3-48a0-a9ea-efd21fd06ea7",
                    "expectedControlType": "Button",
                    "processors": "",
                    "interactions": "Press"
                },
                {
                    "name": "Sprint",
                    "type": "Button",
                    "id": "8efd0310-9e63-4069-9a51-952ddef0e185",
                    "expectedControlType": "Button",
                    "processors": "",
                    "interactions": "Press(behavior=2)"
                },
                {
                    "name": "CombatModeMainWeapon",
                    "type": "Button",
                    "id": "d27acb03-0a1f-4521-8ef2-51707c294cc0",
                    "expectedControlType": "Button",
                    "processors": "",
                    "interactions": "Press"
                },
                {
                    "name": "CombatModeRangedWeapon",
                    "type": "Button",
                    "id": "2d766095-d12c-4a47-9242-82b2b1dec470",
                    "expectedControlType": "Button",
                    "processors": "",
                    "interactions": "Press"
                }
            ],
            "bindings": [
                {
                    "name": "UpDown",
                    "id": "bdd10162-a989-4c77-8f6d-6e8c35f089b4",
                    "path": "1DAxis",
                    "interactions": "",
                    "processors": "AxisDeadzone",
                    "groups": "",
                    "action": "Move",
                    "isComposite": true,
                    "isPartOfComposite": false
                },
                {
                    "name": "LeftRight",
                    "id": "d7ea270b-b3a7-441d-a7b5-119ed1e3ebaf",
                    "path": "1DAxis",
                    "interactions": "",
                    "processors": "",
                    "groups": "",
                    "action": "Move",
                    "isComposite": true,
                    "isPartOfComposite": false
                },
                {
                    "name": "positive",
                    "id": "9d8bb32f-6c44-4ae7-94a6-108dd8020b8e",
                    "path": "<Keyboard>/d",
                    "interactions": "",
                    "processors": "",
                    "groups": "Keyboard&Mouse",
                    "action": "Move",
                    "isComposite": false,
                    "isPartOfComposite": true
                },
                {
                    "name": "negative",
                    "id": "ee495fa1-f591-4f95-b396-32840c800d68",
                    "path": "<Keyboard>/a",
                    "interactions": "",
                    "processors": "",
                    "groups": "Keyboard&Mouse",
                    "action": "Move",
                    "isComposite": false,
                    "isPartOfComposite": true
                },
                {
                    "name": "positive",
                    "id": "34c590fe-1bf9-4f0d-916e-07495366f549",
                    "path": "<Keyboard>/w",
                    "interactions": "",
                    "processors": "",
                    "groups": "Keyboard&Mouse",
                    "action": "Move",
                    "isComposite": false,
                    "isPartOfComposite": true
                },
                {
                    "name": "negative",
                    "id": "720f9d80-8874-4cd4-945b-6614f28f68bc",
                    "path": "<Keyboard>/s",
                    "interactions": "",
                    "processors": "",
                    "groups": "Keyboard&Mouse",
                    "action": "Move",
                    "isComposite": false,
                    "isPartOfComposite": true
                },
                {
                    "name": "",
                    "id": "c86cd28e-5d44-4a49-b6da-7852d29f322e",
                    "path": "<Mouse>/leftButton",
                    "interactions": "Press",
                    "processors": "",
                    "groups": "Keyboard&Mouse",
                    "action": "StandardAttack",
                    "isComposite": false,
                    "isPartOfComposite": false
                },
                {
                    "name": "",
                    "id": "aa33d139-c125-465c-90b1-c66e923e4c10",
                    "path": "<Keyboard>/space",
                    "interactions": "Press",
                    "processors": "",
                    "groups": "Keyboard&Mouse",
                    "action": "Jump",
                    "isComposite": false,
                    "isPartOfComposite": false
                },
                {
                    "name": "",
                    "id": "c738f8e7-29f8-4a81-a7c9-02f67975dbb5",
                    "path": "<Keyboard>/leftShift",
                    "interactions": "",
                    "processors": "",
                    "groups": "Keyboard&Mouse",
                    "action": "Run",
                    "isComposite": false,
                    "isPartOfComposite": false
                },
                {
                    "name": "",
                    "id": "45a7f201-329f-45e5-9a9b-22a40b8ab66a",
                    "path": "<Keyboard>/x",
                    "interactions": "",
                    "processors": "",
                    "groups": "Keyboard&Mouse",
                    "action": "Roll",
                    "isComposite": false,
                    "isPartOfComposite": false
                },
                {
                    "name": "",
                    "id": "d3e2839d-e31a-4484-92a3-b9e3763d1244",
                    "path": "<Mouse>/rightButton",
                    "interactions": "",
                    "processors": "",
                    "groups": "Keyboard&Mouse",
                    "action": "Block",
                    "isComposite": false,
                    "isPartOfComposite": false
                },
                {
                    "name": "",
                    "id": "96961866-83b0-4983-9858-11a0b986edd0",
                    "path": "<Keyboard>/tab",
                    "interactions": "Tap",
                    "processors": "",
                    "groups": "Keyboard&Mouse",
                    "action": "OpenInventory",
                    "isComposite": false,
                    "isPartOfComposite": false
                },
                {
                    "name": "",
                    "id": "28869719-2e69-4985-b382-27ea1be5f6aa",
                    "path": "<Keyboard>/leftShift",
                    "interactions": "",
                    "processors": "",
                    "groups": "",
                    "action": "Sprint",
                    "isComposite": false,
                    "isPartOfComposite": false
                },
                {
                    "name": "",
                    "id": "8645cc56-15d5-47ef-8923-2c6f851da806",
                    "path": "<Keyboard>/1",
                    "interactions": "",
                    "processors": "",
                    "groups": "Keyboard&Mouse",
                    "action": "CombatModeMainWeapon",
                    "isComposite": false,
                    "isPartOfComposite": false
                },
                {
                    "name": "",
                    "id": "6ceb26d8-1387-443a-9356-996dcfe1cf29",
                    "path": "<Keyboard>/2",
                    "interactions": "",
                    "processors": "",
                    "groups": "Keyboard&Mouse",
                    "action": "CombatModeRangedWeapon",
                    "isComposite": false,
                    "isPartOfComposite": false
                }
            ]
        }
    ],
    "controlSchemes": [
        {
            "name": "Keyboard&Mouse",
            "bindingGroup": "Keyboard&Mouse",
            "devices": [
                {
                    "devicePath": "<Keyboard>",
                    "isOptional": false,
                    "isOR": false
                },
                {
                    "devicePath": "<Mouse>",
                    "isOptional": false,
                    "isOR": false
                }
            ]
        }
    ]
}