%YAML 1.1
%TAG !u! tag:unity3d.com,2011:
--- !u!1001 &2816913920166246400
PrefabInstance:
  m_ObjectHideFlags: 0
  serializedVersion: 2
  m_Modification:
    m_TransformParent: {fileID: 0}
    m_Modifications:
    - target: {fileID: -4216859302048453862, guid: c1ac58f958fd93b49a10161ce774a18e,
        type: 3}
      propertyPath: m_LocalPosition.x
      value: 8.576918
      objectReference: {fileID: 0}
    - target: {fileID: -4216859302048453862, guid: c1ac58f958fd93b49a10161ce774a18e,
        type: 3}
      propertyPath: m_LocalPosition.y
      value: -4.856
      objectReference: {fileID: 0}
    - target: {fileID: -4216859302048453862, guid: c1ac58f958fd93b49a10161ce774a18e,
        type: 3}
      propertyPath: m_LocalPosition.z
      value: 4.518855
      objectReference: {fileID: 0}
    - target: {fileID: -4216859302048453862, guid: c1ac58f958fd93b49a10161ce774a18e,
        type: 3}
      propertyPath: m_LocalRotation.x
      value: 1
      objectReference: {fileID: 0}
    - target: {fileID: -4216859302048453862, guid: c1ac58f958fd93b49a10161ce774a18e,
        type: 3}
      propertyPath: m_LocalRotation.y
      value: 0
      objectReference: {fileID: 0}
    - target: {fileID: -4216859302048453862, guid: c1ac58f958fd93b49a10161ce774a18e,
        type: 3}
      propertyPath: m_LocalRotation.z
      value: -0
      objectReference: {fileID: 0}
    - target: {fileID: -4216859302048453862, guid: c1ac58f958fd93b49a10161ce774a18e,
        type: 3}
      propertyPath: m_LocalRotation.w
      value: 0.00000008146034
      objectReference: {fileID: 0}
    - target: {fileID: -4216859302048453862, guid: c1ac58f958fd93b49a10161ce774a18e,
        type: 3}
      propertyPath: m_RootOrder
      value: 0
      objectReference: {fileID: 0}
    - target: {fileID: -4216859302048453862, guid: c1ac58f958fd93b49a10161ce774a18e,
        type: 3}
      propertyPath: m_LocalEulerAnglesHint.x
      value: 0
      objectReference: {fileID: 0}
    - target: {fileID: -4216859302048453862, guid: c1ac58f958fd93b49a10161ce774a18e,
        type: 3}
      propertyPath: m_LocalEulerAnglesHint.y
      value: 0
      objectReference: {fileID: 0}
    - target: {fileID: -4216859302048453862, guid: c1ac58f958fd93b49a10161ce774a18e,
        type: 3}
      propertyPath: m_LocalEulerAnglesHint.z
      value: 0
      objectReference: {fileID: 0}
    - target: {fileID: -927199367670048503, guid: c1ac58f958fd93b49a10161ce774a18e,
        type: 3}
      propertyPath: m_Name
      value: Rapier Variant
      objectReference: {fileID: 0}
    - target: {fileID: -927199367670048503, guid: c1ac58f958fd93b49a10161ce774a18e,
        type: 3}
      propertyPath: m_Layer
      value: 11
      objectReference: {fileID: 0}
    m_RemovedComponents: []
  m_SourcePrefab: {fileID: 100100000, guid: c1ac58f958fd93b49a10161ce774a18e, type: 3}
