%YAML 1.1
%TAG !u! tag:unity3d.com,2011:
--- !u!114 &-7761664388640529259
MonoBehaviour:
  m_ObjectHideFlags: 3
  m_CorrespondingSourceObject: {fileID: 0}
  m_PrefabInstance: {fileID: 0}
  m_PrefabAsset: {fileID: 0}
  m_GameObject: {fileID: 0}
  m_Enabled: 1
  m_EditorHideFlags: 0
  m_Script: {fileID: 11500000, guid: 9008a067f4d626c4d8bc4bc48f04bb89, type: 3}
  m_Name: AmbientOcclusion
  m_EditorClassIdentifier: 
  active: 0
  m_AdvancedMode: 0
  quality:
    m_OverrideState: 1
    m_Value: 2
  rayTracing:
    m_OverrideState: 0
    m_Value: 0
  intensity:
    m_OverrideState: 1
    m_Value: 2.05
    min: 0
    max: 4
  directLightingStrength:
    m_OverrideState: 1
    m_Value: 1
    min: 0
    max: 1
  radius:
    m_OverrideState: 1
    m_Value: 0.25
    min: 0.25
    max: 5
  temporalAccumulation:
    m_OverrideState: 0
    m_Value: 1
  ghostingReduction:
    m_OverrideState: 1
    m_Value: 0.5
    min: 0
    max: 1
  blurSharpness:
    m_OverrideState: 0
    m_Value: 0.1
    min: 0
    max: 1
  layerMask:
    m_OverrideState: 0
    m_Value:
      serializedVersion: 2
      m_Bits: 4294967295
  rayLength:
    m_OverrideState: 0
    m_Value: 0.5
    min: 0
    max: 50
  sampleCount:
    m_OverrideState: 0
    m_Value: 4
    min: 1
    max: 64
  denoise:
    m_OverrideState: 0
    m_Value: 0
  denoiserRadius:
    m_OverrideState: 0
    m_Value: 0.5
    min: 0.001
    max: 1
  m_StepCount:
    m_OverrideState: 0
    m_Value: 6
    min: 2
    max: 32
  m_FullResolution:
    m_OverrideState: 0
    m_Value: 0
  m_MaximumRadiusInPixels:
    m_OverrideState: 0
    m_Value: 40
    min: 16
    max: 256
  m_BilateralUpsample:
    m_OverrideState: 0
    m_Value: 1
  m_DirectionCount:
    m_OverrideState: 0
    m_Value: 2
    min: 1
    max: 6
--- !u!114 &-6738208047688077791
MonoBehaviour:
  m_ObjectHideFlags: 3
  m_CorrespondingSourceObject: {fileID: 0}
  m_PrefabInstance: {fileID: 0}
  m_PrefabAsset: {fileID: 0}
  m_GameObject: {fileID: 0}
  m_Enabled: 1
  m_EditorHideFlags: 0
  m_Script: {fileID: 11500000, guid: 2c1be1b6c95cd2e41b27903b9270817f, type: 3}
  m_Name: Vignette
  m_EditorClassIdentifier: 
  active: 0
  m_AdvancedMode: 0
  mode:
    m_OverrideState: 1
    m_Value: 0
  color:
    m_OverrideState: 1
    m_Value: {r: 0, g: 0.58080727, b: 0.9716981, a: 1}
    hdr: 0
    showAlpha: 0
    showEyeDropper: 1
  center:
    m_OverrideState: 0
    m_Value: {x: 0.5, y: 0.5}
  intensity:
    m_OverrideState: 1
    m_Value: 0
    min: 0
    max: 1
  smoothness:
    m_OverrideState: 1
    m_Value: 1
    min: 0.01
    max: 1
  roundness:
    m_OverrideState: 1
    m_Value: 0.754
    min: 0
    max: 1
  rounded:
    m_OverrideState: 1
    m_Value: 0
  mask:
    m_OverrideState: 0
    m_Value: {fileID: 0}
  opacity:
    m_OverrideState: 0
    m_Value: 1
    min: 0
    max: 1
--- !u!114 &-3489301502357706483
MonoBehaviour:
  m_ObjectHideFlags: 3
  m_CorrespondingSourceObject: {fileID: 0}
  m_PrefabInstance: {fileID: 0}
  m_PrefabAsset: {fileID: 0}
  m_GameObject: {fileID: 0}
  m_Enabled: 1
  m_EditorHideFlags: 0
  m_Script: {fileID: 11500000, guid: 59b6606ef2548734bb6d11b9d160bc7e, type: 3}
  m_Name: HDRISky
  m_EditorClassIdentifier: 
  active: 1
  m_AdvancedMode: 0
  rotation:
    m_OverrideState: 0
    m_Value: 0
    min: 0
    max: 360
  skyIntensityMode:
    m_OverrideState: 1
    m_Value: 0
  exposure:
    m_OverrideState: 1
    m_Value: 1
  multiplier:
    m_OverrideState: 0
    m_Value: 1
    min: 0
  upperHemisphereLuxValue:
    m_OverrideState: 0
    m_Value: 0.46607146
    min: 0
  upperHemisphereLuxColor:
    m_OverrideState: 0
    m_Value: {x: 0.18750611, y: 0.29181966, z: 0.5}
  desiredLuxValue:
    m_OverrideState: 0
    m_Value: 20000
  updateMode:
    m_OverrideState: 0
    m_Value: 0
  updatePeriod:
    m_OverrideState: 0
    m_Value: 0
    min: 0
  includeSunInBaking:
    m_OverrideState: 0
    m_Value: 0
  hdriSky:
    m_OverrideState: 1
    m_Value: {fileID: 8900000, guid: 54a3a0570aebe8949bec4966f1376581, type: 3}
  enableBackplate:
    m_OverrideState: 0
    m_Value: 0
  backplateType:
    m_OverrideState: 0
    m_Value: 0
  groundLevel:
    m_OverrideState: 0
    m_Value: 0
  scale:
    m_OverrideState: 0
    m_Value: {x: 32, y: 32}
  projectionDistance:
    m_OverrideState: 0
    m_Value: 16
    min: 0.0000001
  plateRotation:
    m_OverrideState: 0
    m_Value: 0
    min: 0
    max: 360
  plateTexRotation:
    m_OverrideState: 0
    m_Value: 0
    min: 0
    max: 360
  plateTexOffset:
    m_OverrideState: 0
    m_Value: {x: 0, y: 0}
  blendAmount:
    m_OverrideState: 0
    m_Value: 0
    min: 0
    max: 100
  shadowTint:
    m_OverrideState: 0
    m_Value: {r: 0.5, g: 0.5, b: 0.5, a: 1}
    hdr: 0
    showAlpha: 1
    showEyeDropper: 1
  pointLightShadow:
    m_OverrideState: 0
    m_Value: 0
  dirLightShadow:
    m_OverrideState: 0
    m_Value: 0
  rectLightShadow:
    m_OverrideState: 0
    m_Value: 0
--- !u!114 &-2446830420210043227
MonoBehaviour:
  m_ObjectHideFlags: 3
  m_CorrespondingSourceObject: {fileID: 0}
  m_PrefabInstance: {fileID: 0}
  m_PrefabAsset: {fileID: 0}
  m_GameObject: {fileID: 0}
  m_Enabled: 1
  m_EditorHideFlags: 0
  m_Script: {fileID: 11500000, guid: da5ab44aadfb1804db5fd470983ac1b8, type: 3}
  m_Name: LiftGammaGain
  m_EditorClassIdentifier: 
  active: 0
  m_AdvancedMode: 0
  lift:
    m_OverrideState: 1
    m_Value: {x: 1, y: 0.97327626, z: 0.8866462, w: 0.031914894}
  gamma:
    m_OverrideState: 0
    m_Value: {x: 0.9854476, y: 1, z: 0.99770385, w: 0}
  gain:
    m_OverrideState: 0
    m_Value: {x: 0.99323493, y: 1, z: 0.9949256, w: 7.926149e-11}
--- !u!114 &-1100924968776480117
MonoBehaviour:
  m_ObjectHideFlags: 3
  m_CorrespondingSourceObject: {fileID: 0}
  m_PrefabInstance: {fileID: 0}
  m_PrefabAsset: {fileID: 0}
  m_GameObject: {fileID: 0}
  m_Enabled: 1
  m_EditorHideFlags: 0
  m_Script: {fileID: 11500000, guid: 24f077503be6ae942a1e1245dbd53ea9, type: 3}
  m_Name: Bloom
  m_EditorClassIdentifier: 
  active: 0
  m_AdvancedMode: 0
  quality:
    m_OverrideState: 0
    m_Value: 1
  threshold:
    m_OverrideState: 1
    m_Value: 1
    min: 0
  intensity:
    m_OverrideState: 1
    m_Value: 1
    min: 0
    max: 1
  scatter:
    m_OverrideState: 1
    m_Value: 1
    min: 0
    max: 1
  tint:
    m_OverrideState: 1
    m_Value: {r: 0.8584906, g: 0.7005607, b: 0.7005607, a: 1}
    hdr: 0
    showAlpha: 0
    showEyeDropper: 1
  dirtTexture:
    m_OverrideState: 0
    m_Value: {fileID: 0}
  dirtIntensity:
    m_OverrideState: 0
    m_Value: 0
    min: 0
  anamorphic:
    m_OverrideState: 0
    m_Value: 1
  m_Resolution:
    m_OverrideState: 0
    m_Value: 2
  m_HighQualityFiltering:
    m_OverrideState: 0
    m_Value: 1
--- !u!114 &11400000
MonoBehaviour:
  m_ObjectHideFlags: 0
  m_CorrespondingSourceObject: {fileID: 0}
  m_PrefabInstance: {fileID: 0}
  m_PrefabAsset: {fileID: 0}
  m_GameObject: {fileID: 0}
  m_Enabled: 1
  m_EditorHideFlags: 0
  m_Script: {fileID: 11500000, guid: d7fd9488000d3734a9e00ee676215985, type: 3}
  m_Name: Global Volume Profile
  m_EditorClassIdentifier: 
  components:
  - {fileID: -7761664388640529259}
  - {fileID: -1100924968776480117}
  - {fileID: -2446830420210043227}
  - {fileID: 5753767183474522867}
  - {fileID: -6738208047688077791}
  - {fileID: 1822857816396573648}
  - {fileID: -3489301502357706483}
--- !u!114 &1822857816396573648
MonoBehaviour:
  m_ObjectHideFlags: 3
  m_CorrespondingSourceObject: {fileID: 0}
  m_PrefabInstance: {fileID: 0}
  m_PrefabAsset: {fileID: 0}
  m_GameObject: {fileID: 0}
  m_Enabled: 1
  m_EditorHideFlags: 0
  m_Script: {fileID: 11500000, guid: 953beb541740ddc499d005ee80c9ff29, type: 3}
  m_Name: Fog
  m_EditorClassIdentifier: 
  active: 0
  m_AdvancedMode: 0
  enabled:
    m_OverrideState: 0
    m_Value: 0
  colorMode:
    m_OverrideState: 0
    m_Value: 1
  color:
    m_OverrideState: 0
    m_Value: {r: 0.5, g: 0.5, b: 0.5, a: 1}
    hdr: 1
    showAlpha: 0
    showEyeDropper: 1
  tint:
    m_OverrideState: 0
    m_Value: {r: 1, g: 1, b: 1, a: 1}
    hdr: 1
    showAlpha: 0
    showEyeDropper: 1
  maxFogDistance:
    m_OverrideState: 0
    m_Value: 5000
    min: 0
  mipFogMaxMip:
    m_OverrideState: 0
    m_Value: 0.5
    min: 0
    max: 1
  mipFogNear:
    m_OverrideState: 0
    m_Value: 0
    min: 0
  mipFogFar:
    m_OverrideState: 0
    m_Value: 1000
    min: 0
  baseHeight:
    m_OverrideState: 0
    m_Value: 0
  maximumHeight:
    m_OverrideState: 0
    m_Value: 50
  albedo:
    m_OverrideState: 0
    m_Value: {r: 1, g: 1, b: 1, a: 1}
    hdr: 0
    showAlpha: 1
    showEyeDropper: 1
  meanFreePath:
    m_OverrideState: 0
    m_Value: 400
    min: 1
  enableVolumetricFog:
    m_OverrideState: 0
    m_Value: 0
  anisotropy:
    m_OverrideState: 0
    m_Value: 0
    min: -1
    max: 1
  globalLightProbeDimmer:
    m_OverrideState: 0
    m_Value: 1
    min: 0
    max: 1
  depthExtent:
    m_OverrideState: 0
    m_Value: 64
    min: 0.1
  sliceDistributionUniformity:
    m_OverrideState: 0
    m_Value: 0.75
    min: 0
    max: 1
  filter:
    m_OverrideState: 0
    m_Value: 0
--- !u!114 &5753767183474522867
MonoBehaviour:
  m_ObjectHideFlags: 3
  m_CorrespondingSourceObject: {fileID: 0}
  m_PrefabInstance: {fileID: 0}
  m_PrefabAsset: {fileID: 0}
  m_GameObject: {fileID: 0}
  m_Enabled: 1
  m_EditorHideFlags: 0
  m_Script: {fileID: 11500000, guid: 6b24b200358312b4fa1004e2431c2f1f, type: 3}
  m_Name: ShadowsMidtonesHighlights
  m_EditorClassIdentifier: 
  active: 0
  m_AdvancedMode: 0
  shadows:
    m_OverrideState: 0
    m_Value: {x: 1, y: 0.6330981, z: 0.8174238, w: -0.021276595}
  midtones:
    m_OverrideState: 0
    m_Value: {x: 1, y: 1, z: 1, w: 1}
  highlights:
    m_OverrideState: 1
    m_Value: {x: 1, y: 1, z: 1, w: 0.44680852}
  shadowsStart:
    m_OverrideState: 0
    m_Value: 0
    min: 0
  shadowsEnd:
    m_OverrideState: 0
    m_Value: 0.3
    min: 0
  highlightsStart:
    m_OverrideState: 0
    m_Value: 0.55
    min: 0
  highlightsEnd:
    m_OverrideState: 0
    m_Value: 1
    min: 0
