%YAML 1.1
%TAG !u! tag:unity3d.com,2011:
--- !u!114 &11400000
MonoBehaviour:
  m_ObjectHideFlags: 0
  m_CorrespondingSourceObject: {fileID: 0}
  m_PrefabInstance: {fileID: 0}
  m_PrefabAsset: {fileID: 0}
  m_GameObject: {fileID: 0}
  m_Enabled: 1
  m_EditorHideFlags: 0
  m_Script: {fileID: 11500000, guid: e247ee29ee6eef846b169b9fa842b7a2, type: 3}
  m_Name: BLOOD_HIT
  m_EditorClassIdentifier: Assembly-CSharp::Particle
  particleEffect: {fileID: 1000012909287652, guid: abb9f519b142e304d9c45b56afa768bc,
    type: 3}
